%YAML 1.1
%TAG !u! tag:unity3d.com,2011:
--- !u!1 &8385723995190467760
GameObject:
  m_ObjectHideFlags: 0
  m_CorrespondingSourceObject: {fileID: 0}
  m_PrefabInstance: {fileID: 0}
  m_PrefabAsset: {fileID: 0}
  serializedVersion: 6
  m_Component:
  - component: {fileID: 8385723995190467767}
  - component: {fileID: 8385723995190467764}
  - component: {fileID: 8385723995190467765}
  - component: {fileID: 8385723995190467762}
  - component: {fileID: 8385723995190467763}
  m_Layer: 0
  m_Name: 8
  m_TagString: Untagged
  m_Icon: {fileID: 0}
  m_NavMeshLayer: 0
  m_StaticEditorFlags: 0
  m_IsActive: 1
--- !u!4 &8385723995190467767
Transform:
  m_ObjectHideFlags: 0
  m_CorrespondingSourceObject: {fileID: 0}
  m_PrefabInstance: {fileID: 0}
  m_PrefabAsset: {fileID: 0}
  m_GameObject: {fileID: 8385723995190467760}
  m_LocalRotation: {x: 0, y: 0, z: 0, w: 1}
  m_LocalPosition: {x: 0, y: 0, z: 0}
  m_LocalScale: {x: 1, y: 1, z: 1}
  m_ConstrainProportionsScale: 0
  m_Children: []
  m_Father: {fileID: 0}
  m_RootOrder: 0
  m_LocalEulerAnglesHint: {x: 0, y: 0, z: 0}
--- !u!212 &8385723995190467764
SpriteRenderer:
  m_ObjectHideFlags: 0
  m_CorrespondingSourceObject: {fileID: 0}
  m_PrefabInstance: {fileID: 0}
  m_PrefabAsset: {fileID: 0}
  m_GameObject: {fileID: 8385723995190467760}
  m_Enabled: 1
  m_CastShadows: 0
  m_ReceiveShadows: 0
  m_DynamicOccludee: 1
  m_StaticShadowCaster: 0
  m_MotionVectors: 1
  m_LightProbeUsage: 1
  m_ReflectionProbeUsage: 1
  m_RayTracingMode: 0
  m_RayTraceProcedural: 0
  m_RenderingLayerMask: 1
  m_RendererPriority: 0
  m_Materials:
  - {fileID: 2100000, guid: a97c105638bdf8b4a8650670310a4cd3, type: 2}
  m_StaticBatchInfo:
    firstSubMesh: 0
    subMeshCount: 0
  m_StaticBatchRoot: {fileID: 0}
  m_ProbeAnchor: {fileID: 0}
  m_LightProbeVolumeOverride: {fileID: 0}
  m_ScaleInLightmap: 1
  m_ReceiveGI: 1
  m_PreserveUVs: 0
  m_IgnoreNormalsForChartDetection: 0
  m_ImportantGI: 0
  m_StitchLightmapSeams: 1
  m_SelectedEditorRenderState: 0
  m_MinimumChartSize: 4
  m_AutoUVMaxDistance: 0.5
  m_AutoUVMaxAngle: 89
  m_LightmapParameters: {fileID: 0}
  m_SortingLayerID: 0
  m_SortingLayer: 0
  m_SortingOrder: 0
  m_Sprite: {fileID: 21300000, guid: ca11bb3c28df0fd4686dccb029f536a3, type: 3}
  m_Color: {r: 1, g: 1, b: 1, a: 1}
  m_FlipX: 0
  m_FlipY: 0
  m_DrawMode: 0
  m_Size: {x: 2.09, y: 2.09}
  m_AdaptiveModeThreshold: 0.5
  m_SpriteTileMode: 0
  m_WasSpriteAssigned: 1
  m_MaskInteraction: 0
  m_SpriteSortPoint: 0
--- !u!60 &8385723995190467765
PolygonCollider2D:
  m_ObjectHideFlags: 0
  m_CorrespondingSourceObject: {fileID: 0}
  m_PrefabInstance: {fileID: 0}
  m_PrefabAsset: {fileID: 0}
  m_GameObject: {fileID: 8385723995190467760}
  m_Enabled: 1
  m_Density: 1
  m_Material: {fileID: 0}
  m_IsTrigger: 0
  m_UsedByEffector: 0
  m_UsedByComposite: 0
  m_Offset: {x: 0, y: 0}
  m_SpriteTilingProperty:
    border: {x: 0, y: 0, z: 0, w: 0}
    pivot: {x: 0.5, y: 0.5}
    oldSize: {x: 2.09, y: 2.09}
    newSize: {x: 2.09, y: 2.09}
    adaptiveTilingThreshold: 0.5
    drawMode: 0
    adaptiveTiling: 0
  m_AutoTiling: 0
  m_Points:
    m_Paths:
    - - {x: 0.79499996, y: -0.705}
      - {x: 0.92499995, y: -0.555}
      - {x: 1.035, y: -0.305}
      - {x: 1.045, y: -0.255}
      - {x: 1.045, y: 0.21499999}
      - {x: 1.025, y: 0.295}
      - {x: 0.98499995, y: 0.405}
      - {x: 0.875, y: 0.615}
      - {x: 0.79499996, y: 0.715}
      - {x: 0.715, y: 0.79499996}
      - {x: 0.555, y: 0.91499996}
      - {x: 0.36499998, y: 1.015}
      - {x: 0.225, y: 1.045}
      - {x: -0.225, y: 1.045}
      - {x: -0.265, y: 1.035}
      - {x: -0.36499998, y: 1.015}
      - {x: -0.615, y: 0.875}
      - {x: -0.715, y: 0.79499996}
      - {x: -0.84499997, y: 0.655}
      - {x: -0.91499996, y: 0.555}
      - {x: -1.015, y: 0.355}
      - {x: -1.045, y: 0.225}
      - {x: -1.045, y: -0.24499999}
      - {x: -1.005, y: -0.36499998}
      - {x: -0.91499996, y: -0.555}
      - {x: -0.84499997, y: -0.655}
      - {x: -0.655, y: -0.85499996}
      - {x: -0.555, y: -0.91499996}
      - {x: -0.355, y: -1.005}
      - {x: -0.255, y: -1.035}
      - {x: -0.21499999, y: -1.045}
      - {x: 0.225, y: -1.045}
      - {x: 0.305, y: -1.035}
      - {x: 0.555, y: -0.92499995}
      - {x: 0.715, y: -0.79499996}
--- !u!114 &8385723995190467762
MonoBehaviour:
  m_ObjectHideFlags: 0
  m_CorrespondingSourceObject: {fileID: 0}
  m_PrefabInstance: {fileID: 0}
  m_PrefabAsset: {fileID: 0}
  m_GameObject: {fileID: 8385723995190467760}
  m_Enabled: 1
  m_EditorHideFlags: 0
  m_Script: {fileID: 11500000, guid: 63936afdc2a3e464082b88ba07bc0348, type: 3}
  m_Name: 
  m_EditorClassIdentifier: 
  FruitType: 7
--- !u!50 &8385723995190467763
Rigidbody2D:
  serializedVersion: 4
  m_ObjectHideFlags: 0
  m_CorrespondingSourceObject: {fileID: 0}
  m_PrefabInstance: {fileID: 0}
  m_PrefabAsset: {fileID: 0}
  m_GameObject: {fileID: 8385723995190467760}
  m_BodyType: 0
  m_Simulated: 1
  m_UseFullKinematicContacts: 0
  m_UseAutoMass: 0
  m_Mass: 1
  m_LinearDrag: 0
  m_AngularDrag: 0.05
  m_GravityScale: 1
  m_Material: {fileID: 0}
  m_Interpolate: 0
  m_SleepingMode: 1
  m_CollisionDetection: 0
  m_Constraints: 0
