%YAML 1.1
%TAG !u! tag:unity3d.com,2011:
--- !u!1 &8724278024712863640
GameObject:
  m_ObjectHideFlags: 0
  m_CorrespondingSourceObject: {fileID: 0}
  m_PrefabInstance: {fileID: 0}
  m_PrefabAsset: {fileID: 0}
  serializedVersion: 6
  m_Component:
  - component: {fileID: 8724278024712863621}
  - component: {fileID: 8724278024712863620}
  - component: {fileID: 8724278024712863643}
  - component: {fileID: 8724278024712863642}
  - component: {fileID: 8724278024712863641}
  m_Layer: 0
  m_Name: 9
  m_TagString: Untagged
  m_Icon: {fileID: 0}
  m_NavMeshLayer: 0
  m_StaticEditorFlags: 0
  m_IsActive: 1
--- !u!4 &8724278024712863621
Transform:
  m_ObjectHideFlags: 0
  m_CorrespondingSourceObject: {fileID: 0}
  m_PrefabInstance: {fileID: 0}
  m_PrefabAsset: {fileID: 0}
  m_GameObject: {fileID: 8724278024712863640}
  m_LocalRotation: {x: 0, y: 0, z: 0, w: 1}
  m_LocalPosition: {x: 0, y: 0, z: 0}
  m_LocalScale: {x: 1, y: 1, z: 1}
  m_ConstrainProportionsScale: 0
  m_Children: []
  m_Father: {fileID: 0}
  m_RootOrder: 0
  m_LocalEulerAnglesHint: {x: 0, y: 0, z: 0}
--- !u!212 &8724278024712863620
SpriteRenderer:
  m_ObjectHideFlags: 0
  m_CorrespondingSourceObject: {fileID: 0}
  m_PrefabInstance: {fileID: 0}
  m_PrefabAsset: {fileID: 0}
  m_GameObject: {fileID: 8724278024712863640}
  m_Enabled: 1
  m_CastShadows: 0
  m_ReceiveShadows: 0
  m_DynamicOccludee: 1
  m_StaticShadowCaster: 0
  m_MotionVectors: 1
  m_LightProbeUsage: 1
  m_ReflectionProbeUsage: 1
  m_RayTracingMode: 0
  m_RayTraceProcedural: 0
  m_RenderingLayerMask: 1
  m_RendererPriority: 0
  m_Materials:
  - {fileID: 2100000, guid: a97c105638bdf8b4a8650670310a4cd3, type: 2}
  m_StaticBatchInfo:
    firstSubMesh: 0
    subMeshCount: 0
  m_StaticBatchRoot: {fileID: 0}
  m_ProbeAnchor: {fileID: 0}
  m_LightProbeVolumeOverride: {fileID: 0}
  m_ScaleInLightmap: 1
  m_ReceiveGI: 1
  m_PreserveUVs: 0
  m_IgnoreNormalsForChartDetection: 0
  m_ImportantGI: 0
  m_StitchLightmapSeams: 1
  m_SelectedEditorRenderState: 0
  m_MinimumChartSize: 4
  m_AutoUVMaxDistance: 0.5
  m_AutoUVMaxAngle: 89
  m_LightmapParameters: {fileID: 0}
  m_SortingLayerID: 0
  m_SortingLayer: 0
  m_SortingOrder: 0
  m_Sprite: {fileID: 21300000, guid: b6a5a0a61fc56db489a21c93dc7d4e33, type: 3}
  m_Color: {r: 1, g: 1, b: 1, a: 1}
  m_FlipX: 0
  m_FlipY: 0
  m_DrawMode: 0
  m_Size: {x: 2.99, y: 2.99}
  m_AdaptiveModeThreshold: 0.5
  m_SpriteTileMode: 0
  m_WasSpriteAssigned: 1
  m_MaskInteraction: 0
  m_SpriteSortPoint: 0
--- !u!60 &8724278024712863643
PolygonCollider2D:
  m_ObjectHideFlags: 0
  m_CorrespondingSourceObject: {fileID: 0}
  m_PrefabInstance: {fileID: 0}
  m_PrefabAsset: {fileID: 0}
  m_GameObject: {fileID: 8724278024712863640}
  m_Enabled: 1
  m_Density: 1
  m_Material: {fileID: 0}
  m_IsTrigger: 0
  m_UsedByEffector: 0
  m_UsedByComposite: 0
  m_Offset: {x: 0, y: 0}
  m_SpriteTilingProperty:
    border: {x: 0, y: 0, z: 0, w: 0}
    pivot: {x: 0.5, y: 0.5}
    oldSize: {x: 2.99, y: 2.99}
    newSize: {x: 2.99, y: 2.99}
    adaptiveTilingThreshold: 0.5
    drawMode: 0
    adaptiveTiling: 0
  m_AutoTiling: 0
  m_Points:
    m_Paths:
    - - {x: 0.79499996, y: -1.295}
      - {x: 0.885, y: -1.235}
      - {x: 0.965, y: -1.165}
      - {x: 1.165, y: -0.965}
      - {x: 1.295, y: -0.79499996}
      - {x: 1.425, y: -0.555}
      - {x: 1.495, y: -0.315}
      - {x: 1.495, y: 0.265}
      - {x: 1.485, y: 0.355}
      - {x: 1.415, y: 0.555}
      - {x: 1.3249999, y: 0.745}
      - {x: 1.275, y: 0.825}
      - {x: 1.165, y: 0.97499996}
      - {x: 0.97499996, y: 1.165}
      - {x: 0.79499996, y: 1.295}
      - {x: 0.555, y: 1.425}
      - {x: 0.275, y: 1.495}
      - {x: -0.265, y: 1.495}
      - {x: -0.355, y: 1.485}
      - {x: -0.555, y: 1.415}
      - {x: -0.745, y: 1.3249999}
      - {x: -0.885, y: 1.235}
      - {x: -0.965, y: 1.165}
      - {x: -1.165, y: 0.965}
      - {x: -1.235, y: 0.875}
      - {x: -1.3249999, y: 0.745}
      - {x: -1.425, y: 0.555}
      - {x: -1.495, y: 0.315}
      - {x: -1.495, y: -0.265}
      - {x: -1.4549999, y: -0.42499998}
      - {x: -1.415, y: -0.545}
      - {x: -1.3249999, y: -0.745}
      - {x: -1.235, y: -0.885}
      - {x: -1.165, y: -0.965}
      - {x: -0.965, y: -1.165}
      - {x: -0.875, y: -1.235}
      - {x: -0.745, y: -1.3249999}
      - {x: -0.555, y: -1.425}
      - {x: -0.315, y: -1.495}
      - {x: 0.275, y: -1.495}
      - {x: 0.465, y: -1.4449999}
      - {x: 0.555, y: -1.425}
--- !u!114 &8724278024712863642
MonoBehaviour:
  m_ObjectHideFlags: 0
  m_CorrespondingSourceObject: {fileID: 0}
  m_PrefabInstance: {fileID: 0}
  m_PrefabAsset: {fileID: 0}
  m_GameObject: {fileID: 8724278024712863640}
  m_Enabled: 1
  m_EditorHideFlags: 0
  m_Script: {fileID: 11500000, guid: 63936afdc2a3e464082b88ba07bc0348, type: 3}
  m_Name: 
  m_EditorClassIdentifier: 
  FruitType: 8
--- !u!50 &8724278024712863641
Rigidbody2D:
  serializedVersion: 4
  m_ObjectHideFlags: 0
  m_CorrespondingSourceObject: {fileID: 0}
  m_PrefabInstance: {fileID: 0}
  m_PrefabAsset: {fileID: 0}
  m_GameObject: {fileID: 8724278024712863640}
  m_BodyType: 0
  m_Simulated: 1
  m_UseFullKinematicContacts: 0
  m_UseAutoMass: 0
  m_Mass: 1
  m_LinearDrag: 0
  m_AngularDrag: 0.05
  m_GravityScale: 1
  m_Material: {fileID: 0}
  m_Interpolate: 0
  m_SleepingMode: 1
  m_CollisionDetection: 0
  m_Constraints: 0
